com/dh/sys/controller/sysconfigcenter/SysConfigCenterController.class
com/dh/sys/util/JavaShellUtil.class
com/dh/sys/controller/syslog/SysLogController.class
com/dh/sys/controller/fileupload/FileUploadController$TypeComparator.class
com/dh/sys/util/DhHttpUtils.class
com/dh/sys/controller/fileupload/AttachedController.class
com/dh/sys/controller/fileupload/FileUploadController$NameComparator.class
com/dh/sys/util/ConfigBean.class
com/dh/sys/tag/CodeDicSelect.class
com/dh/sys/util/DhUtil.class
com/dh/sys/controller/syssync/SysSyncController$1.class
com/dh/sys/util/ZipUtil.class
com/dh/sys/util/ServletUtils.class
com/dh/sys/controller/sysmenu/SysMenuCollection.class
com/dh/sys/util/AutoGenerationCode.class
com/dh/sys/controller/custinfo/CustInfoController.class
com/dh/sys/controller/syscode/SysCodeController.class
com/dh/sys/service/thread/Consumer.class
com/dh/sys/controller/sysuser/SysUserController.class
com/dh/sys/controller/news/DhNewsController.class
com/dh/sys/controller/fileupload/FileUploadController$1.class
com/dh/sys/util/DhHttpUtils$1.class
com/dh/sys/util/DateUtils.class
com/dh/sys/service/news/NewsExtService.class
com/dh/sys/util/XmlConverUtil.class
com/dh/sys/controller/userquota/UserQuotaController.class
com/dh/sys/controller/fileupload/FileUploadController.class
com/dh/sys/controller/sysmenu/SysMenuController.class
com/dh/sys/util/StringUtil.class
com/dh/sys/util/SpringBeanFactoryUtils.class
com/dh/sys/controller/sysconfigcenter/Json2Xml.class
com/dh/sys/controller/UserLogin.class
com/dh/sys/controller/fileupload/FileUploadController$SizeComparator.class
com/dh/sys/controller/syssync/SysSyncController.class
