com/dh/sys/syssync/service/SysSyncService.class
com/dh/sys/syscode/service/SysCodeService.class
com/dh/sys/syslog/service/impl/SysLogServiceImpl.class
com/dh/sys/sysmenu/service/impl/SysMenuServiceImpl.class
com/dh/sys/mongo/MongoService.class
com/dh/sys/syslog/service/SysLogService.class
com/dh/sys/sysconfigcenter/service/impl/SysConfigCenterServiceImpl.class
com/dh/sys/news/service/impl/DhNewsServiceImpl.class
com/dh/sys/syssync/service/impl/SysSyncServiceImpl.class
com/dh/sys/sysmenu/service/SysMenuService.class
com/dh/sys/sysuser/service/impl/SysUserServiceImpl.class
com/dh/sys/statistics/service/BlogStatisticsService.class
com/dh/sys/statistics/service/impl/BlogStatisticsServiceImpl.class
com/dh/sys/news/service/impl/DhNewsServiceImpl$2.class
com/dh/sys/userquota/service/impl/UserQuotaServiceImpl.class
com/dh/sys/sysuser/service/SysUserService.class
com/dh/sys/syscode/service/impl/SysCodeServiceImpl.class
com/dh/sys/custinfo/service/impl/CustInfoServiceImpl.class
com/dh/sys/sysconfigcenter/service/SysConfigCenterService.class
com/dh/sys/custinfo/service/CustInfoService.class
com/dh/sys/news/service/impl/DhNewsServiceImpl$1.class
com/dh/sys/news/service/DhNewsService.class
com/dh/sys/sync/MongoSyncService.class
com/dh/sys/userquota/service/UserQuotaService.class
